%YAML 1.1
%TAG !u! tag:unity3d.com,2011:
--- !u!1045 &1
EditorBuildSettings:
  m_ObjectHideFlags: 0
  serializedVersion: 2
  m_Scenes:
  - enabled: 1
    path: Assets/Scenes/SceneMenu.unity
    guid: 200fe4434c66bd24390fc08dcea2e0ad
  - enabled: 1
    path: Assets/Scenes/SampleScene.unity
    guid: 9fc0d4010bbf28b4594072e72b8655ab
  - enabled: 1
    path: Assets/Scenes/SampleExtra.unity
    guid: 5fc9e9af0764f3c4192a8cab6d0a49ac
  m_configObjects: {}
